<?xml version="1.0" encoding="utf-8"?>
<!-- Generator: Adobe Illustrator 19.0.0, SVG Export Plug-In . SVG Version: 6.00 Build 0)  -->
<svg version="1.1" id="Layer_1" xmlns="http://www.w3.org/2000/svg" xmlns:xlink="http://www.w3.org/1999/xlink" x="0px" y="0px"
	 width="45px" height="45px" viewBox="-288.7 147.3 45 45" style="enable-background:new -288.7 147.3 45 45;" xml:space="preserve"
	>
<style type="text/css">
	.st0{fill:#FFFFFF;}
</style>
<path class="st0" d="M-266.2,147.3c-12.5,0-22.5,10-22.5,22.5s10,22.5,22.5,22.5s22.5-10,22.5-22.5S-253.8,147.3-266.2,147.3z
	 M-254.3,164.3l-12,13.5c-0.4,0.4-0.9,0.6-1.4,0.6c-0.4,0-0.9-0.1-1.2-0.4l-7.5-6c-0.8-0.7-1-1.8-0.3-2.7c0.7-0.8,1.8-1,2.7-0.3
	l6.1,4.9l10.8-12.1c0.7-0.8,1.9-0.9,2.7-0.1C-253.7,162.3-253.6,163.5-254.3,164.3z"/>
</svg>
